<?xml version="1.0" encoding="UTF-8"?>
<svg width="40px" height="72px" viewBox="0 0 40 72" version="1.1" xmlns="http://www.w3.org/2000/svg" xmlns:xlink="http://www.w3.org/1999/xlink">
    <!-- Generator: Sketch 52.4 (67378) - http://www.bohemiancoding.com/sketch -->
    <title>FAIL/on@1.5x</title>
    <desc>Created with Sketch.</desc>
    <defs>
        <path d="M0,19 L22,19 L11,0 L0,19 L0,19 Z M12,16 L10,16 L10,14 L12,14 L12,16 L12,16 Z M12,12 L10,12 L10,8 L12,8 L12,12 L12,12 Z" id="path-1"></path>
    </defs>
    <g id="FAIL/on" stroke="none" stroke-width="1" fill="none" fill-rule="evenodd">
        <g id="FAIL-ON">
            <g id="Fail-Copy">
                <circle id="Oval" fill="#F44336" fill-rule="nonzero" cx="20" cy="20" r="20"></circle>
                <g id="Alert/ic_warning" transform="translate(8.000000, 7.000000)">
                    <g transform="translate(1.000000, 2.000000)">
                        <mask id="mask-2" fill="white">
                            <use xlink:href="#path-1"></use>
                        </mask>
                        <use id="Mask" fill="#2C2B3F" xlink:href="#path-1"></use>
                    </g>
                </g>
            </g>
            <text id="BELOW-GOAL" font-family="Roboto-Bold, Roboto" font-size="12" font-weight="bold" fill="#F44336">
                <tspan x="0.344726562" y="55">BELOW</tspan>
                <tspan x="4.54589844" y="69">GOAL</tspan>
            </text>
        </g>
    </g>
</svg>